%YAML 1.1
%TAG !u! tag:unity3d.com,2011:
--- !u!1001 &4339633929496772956
PrefabInstance:
  m_ObjectHideFlags: 0
  serializedVersion: 2
  m_Modification:
    m_TransformParent: {fileID: 0}
    m_Modifications:
    - target: {fileID: 9067602862522517265, guid: 931189d9ce8936b4f8c7996cadc40541,
        type: 3}
      propertyPath: m_Name
      value: Particle System1
      objectReference: {fileID: 0}
    - target: {fileID: 223302343343672322, guid: 931189d9ce8936b4f8c7996cadc40541,
        type: 3}
      propertyPath: m_LocalPosition.x
      value: -1.187
      objectReference: {fileID: 0}
    - target: {fileID: 223302343343672322, guid: 931189d9ce8936b4f8c7996cadc40541,
        type: 3}
      propertyPath: m_LocalPosition.y
      value: -0.036
      objectReference: {fileID: 0}
    - target: {fileID: 223302343343672322, guid: 931189d9ce8936b4f8c7996cadc40541,
        type: 3}
      propertyPath: m_LocalPosition.z
      value: -0
      objectReference: {fileID: 0}
    - target: {fileID: 223302343343672322, guid: 931189d9ce8936b4f8c7996cadc40541,
        type: 3}
      propertyPath: m_LocalRotation.x
      value: -0.7071068
      objectReference: {fileID: 0}
    - target: {fileID: 223302343343672322, guid: 931189d9ce8936b4f8c7996cadc40541,
        type: 3}
      propertyPath: m_LocalRotation.y
      value: 0
      objectReference: {fileID: 0}
    - target: {fileID: 223302343343672322, guid: 931189d9ce8936b4f8c7996cadc40541,
        type: 3}
      propertyPath: m_LocalRotation.z
      value: 0
      objectReference: {fileID: 0}
    - target: {fileID: 223302343343672322, guid: 931189d9ce8936b4f8c7996cadc40541,
        type: 3}
      propertyPath: m_LocalRotation.w
      value: 0.7071068
      objectReference: {fileID: 0}
    - target: {fileID: 223302343343672322, guid: 931189d9ce8936b4f8c7996cadc40541,
        type: 3}
      propertyPath: m_RootOrder
      value: 0
      objectReference: {fileID: 0}
    - target: {fileID: 223302343343672322, guid: 931189d9ce8936b4f8c7996cadc40541,
        type: 3}
      propertyPath: m_LocalEulerAnglesHint.x
      value: -90
      objectReference: {fileID: 0}
    - target: {fileID: 223302343343672322, guid: 931189d9ce8936b4f8c7996cadc40541,
        type: 3}
      propertyPath: m_LocalEulerAnglesHint.y
      value: 0
      objectReference: {fileID: 0}
    - target: {fileID: 223302343343672322, guid: 931189d9ce8936b4f8c7996cadc40541,
        type: 3}
      propertyPath: m_LocalEulerAnglesHint.z
      value: 0
      objectReference: {fileID: 0}
    m_RemovedComponents: []
  m_SourcePrefab: {fileID: 100100000, guid: 931189d9ce8936b4f8c7996cadc40541, type: 3}
